%!PS-Adobe-3.0 EPSF-3.0
%%Creator: cairo 1.15.11 (http://cairographics.org)
%%CreationDate: Mon Mar 26 08:18:11 2018
%%Pages: 1
%%DocumentData: Clean7Bit
%%LanguageLevel: 2
%%BoundingBox: 0 0 766 766
%%EndComments
%%BeginProlog
50 dict begin
/q { gsave } bind def
/Q { grestore } bind def
/cm { 6 array astore concat } bind def
/w { setlinewidth } bind def
/J { setlinecap } bind def
/j { setlinejoin } bind def
/M { setmiterlimit } bind def
/d { setdash } bind def
/m { moveto } bind def
/l { lineto } bind def
/c { curveto } bind def
/h { closepath } bind def
/re { exch dup neg 3 1 roll 5 3 roll moveto 0 rlineto
      0 exch rlineto 0 rlineto closepath } bind def
/S { stroke } bind def
/f { fill } bind def
/f* { eofill } bind def
/n { newpath } bind def
/W { clip } bind def
/W* { eoclip } bind def
/BT { } bind def
/ET { } bind def
/BDC { mark 3 1 roll /BDC pdfmark } bind def
/EMC { mark /EMC pdfmark } bind def
/cairo_store_point { /cairo_point_y exch def /cairo_point_x exch def } def
/Tj { show currentpoint cairo_store_point } bind def
/TJ {
  {
    dup
    type /stringtype eq
    { show } { -0.001 mul 0 cairo_font_matrix dtransform rmoveto } ifelse
  } forall
  currentpoint cairo_store_point
} bind def
/cairo_selectfont { cairo_font_matrix aload pop pop pop 0 0 6 array astore
    cairo_font exch selectfont cairo_point_x cairo_point_y moveto } bind def
/Tf { pop /cairo_font exch def /cairo_font_matrix where
      { pop cairo_selectfont } if } bind def
/Td { matrix translate cairo_font_matrix matrix concatmatrix dup
      /cairo_font_matrix exch def dup 4 get exch 5 get cairo_store_point
      /cairo_font where { pop cairo_selectfont } if } bind def
/Tm { 2 copy 8 2 roll 6 array astore /cairo_font_matrix exch def
      cairo_store_point /cairo_font where { pop cairo_selectfont } if } bind def
/g { setgray } bind def
/rg { setrgbcolor } bind def
/d1 { setcachedevice } bind def
/cairo_data_source {
  CairoDataIndex CairoData length lt
    { CairoData CairoDataIndex get /CairoDataIndex CairoDataIndex 1 add def }
    { () } ifelse
} def
/cairo_flush_ascii85_file { cairo_ascii85_file status { cairo_ascii85_file flushfile } if } def
/cairo_image { image cairo_flush_ascii85_file } def
/cairo_imagemask { imagemask cairo_flush_ascii85_file } def
%%EndProlog
%%BeginSetup
%%EndSetup
%%Page: 1 1
%%BeginPageSetup
%%PageBoundingBox: 0 0 766 766
%%EndPageSetup
q 0 0 766 766 rectclip
1 0 0 -1 0 766 cm q
1 0.8 0 rg
0 226.77 m 0 765.355 l 765.355 765.355 l 765.355 226.77 l h
56.691 255.117 m 85.039 255.117 l 100.742 255.117 113.387 267.762 113.387
 283.465 c 113.387 453.543 l 113.387 469.246 100.742 481.891 85.039 481.891
 c 56.691 481.891 l 40.988 481.891 28.348 469.246 28.348 453.543 c 28.348
 283.465 l 28.348 267.762 40.988 255.117 56.691 255.117 c h
311.812 255.117 m 340.156 255.117 l 355.859 255.117 368.504 267.762 368.504
 283.465 c 368.504 453.543 l 368.504 465.32 361.395 475.379 351.211 479.668
 c 347.82 481.098 344.082 481.891 340.156 481.891 c 170.078 481.891 l 154.375
 481.891 141.73 469.246 141.73 453.543 c 141.73 425.195 l 141.73 409.492
 154.375 396.852 170.078 396.852 c 283.465 396.852 l 283.465 283.465 l 283.465
 267.762 296.105 255.117 311.812 255.117 c h
425.195 255.117 m 708.66 255.117 l 724.367 255.117 737.008 267.762 737.008
 283.465 c 737.008 453.543 l 737.008 465.32 729.898 475.379 719.715 479.668
 c 716.32 481.098 712.59 481.891 708.66 481.891 c 425.195 481.891 l 409.492
 481.891 396.852 469.246 396.852 453.543 c 396.852 425.195 l 396.852 409.492
 409.492 396.852 425.195 396.852 c 651.969 396.852 l 651.969 340.156 l 425.195
 340.156 l 409.492 340.156 396.852 327.516 396.852 311.812 c 396.852 283.465
 l 396.852 267.762 409.492 255.117 425.195 255.117 c h
56.691 510.234 m 85.039 510.234 l 100.742 510.234 113.387 522.879 113.387
 538.582 c 113.387 708.66 l 113.387 724.367 100.742 737.008 85.039 737.008
 c 56.691 737.008 l 40.988 737.008 28.348 724.367 28.348 708.66 c 28.348
 538.582 l 28.348 522.879 40.988 510.234 56.691 510.234 c h
170.078 510.234 m 340.156 510.234 l 355.859 510.234 368.504 522.879 368.504
 538.582 c 368.504 708.66 l 368.504 724.367 355.859 737.008 340.156 737.008
 c 311.812 737.008 l 296.105 737.008 283.465 724.367 283.465 708.66 c 283.465
 595.277 l 170.078 595.277 l 154.375 595.277 141.73 582.633 141.73 566.93
 c 141.73 538.582 l 141.73 522.879 154.375 510.234 170.078 510.234 c h
425.195 510.234 m 708.66 510.234 l 724.367 510.234 737.008 522.879 737.008
 538.582 c 737.008 566.93 l 737.008 582.633 724.367 595.277 708.66 595.277
 c 481.891 595.277 l 481.891 651.969 l 708.66 651.969 l 724.367 651.969 
737.008 664.609 737.008 680.312 c 737.008 708.66 l 737.008 724.367 724.367
 737.008 708.66 737.008 c 425.195 737.008 l 409.492 737.008 396.852 724.367
 396.852 708.66 c 396.852 538.582 l 396.852 523.367 408.715 511.027 423.734
 510.273 c 424.219 510.25 424.707 510.234 425.195 510.234 c h
425.195 510.234 m f
6.516 170.211 m 6.516 93.211 l 28.516 93.211 l 28.516 115.211 l 39.516 
115.211 l 39.516 104.211 l 50.516 104.211 l 50.516 93.211 l 72.516 93.211
 l 72.516 104.211 l 61.516 104.211 l 61.516 115.211 l 50.516 115.211 l 50.516
 126.211 l 39.516 126.211 l 39.516 137.211 l 50.516 137.211 l 50.516 148.211
 l 61.516 148.211 l 61.516 159.211 l 72.516 159.211 l 72.516 170.211 l 50.516
 170.211 l 50.516 159.211 l 39.516 159.211 l 39.516 148.211 l 28.516 148.211
 l 28.516 170.211 l h
6.516 170.211 m f
94.516 170.211 m 94.516 159.211 l 83.516 159.211 l 83.516 148.211 l 94.516
 148.211 l 94.516 137.211 l 127.516 137.211 l 127.516 126.211 l 94.516 126.211
 l 94.516 115.211 l 138.516 115.211 l 138.516 126.211 l 149.516 126.211 
l 149.516 170.211 l h
105.516 159.211 m 127.516 159.211 l 127.516 148.211 l 105.516 148.211 l
 h
105.516 159.211 m f
160.516 170.211 m 160.516 115.211 l 182.516 115.211 l 182.516 126.211 l
 204.516 126.211 l 204.516 115.211 l 226.516 115.211 l 226.516 126.211 l
 237.516 126.211 l 237.516 170.211 l 215.516 170.211 l 215.516 148.211 l
 204.516 148.211 l 204.516 159.211 l 193.516 159.211 l 193.516 148.211 l
 182.516 148.211 l 182.516 170.211 l h
160.516 170.211 m f
248.516 170.211 m 248.516 159.211 l 259.516 159.211 l 259.516 137.211 l
 248.516 137.211 l 248.516 126.211 l 281.516 126.211 l 281.516 159.211 l
 292.516 159.211 l 292.516 170.211 l h
259.516 115.211 m 259.516 104.211 l 281.516 104.211 l 281.516 115.211 l
 h
259.516 115.211 m f
303.516 170.211 m 303.516 104.211 l 325.516 104.211 l 325.516 137.211 l
 336.516 137.211 l 336.516 126.211 l 358.516 126.211 l 358.516 137.211 l
 347.516 137.211 l 347.516 148.211 l 358.516 148.211 l 358.516 159.211 l
 369.516 159.211 l 369.516 170.211 l 347.516 170.211 l 347.516 159.211 l
 336.516 159.211 l 336.516 148.211 l 325.516 148.211 l 325.516 170.211 l
 h
303.516 170.211 m f
391.516 170.211 m 391.516 159.211 l 380.516 159.211 l 380.516 148.211 l
 391.516 148.211 l 391.516 137.211 l 424.516 137.211 l 424.516 126.211 l
 391.516 126.211 l 391.516 115.211 l 435.516 115.211 l 435.516 126.211 l
 446.516 126.211 l 446.516 170.211 l h
402.516 159.211 m 424.516 159.211 l 424.516 148.211 l 402.516 148.211 l
 h
402.516 159.211 m f
479.516 170.211 m 479.516 104.211 l 457.516 104.211 l 457.516 93.211 l 
523.516 93.211 l 523.516 104.211 l 501.516 104.211 l 501.516 170.211 l h
479.516 170.211 m f
534.516 170.211 m 534.516 159.211 l 545.516 159.211 l 545.516 148.211 l
 556.516 148.211 l 556.516 137.211 l 567.516 137.211 l 567.516 126.211 l
 534.516 126.211 l 534.516 115.211 l 600.516 115.211 l 600.516 126.211 l
 589.516 126.211 l 589.516 137.211 l 578.516 137.211 l 578.516 148.211 l
 567.516 148.211 l 567.516 159.211 l 600.516 159.211 l 600.516 170.211 l
 h
534.516 170.211 m f
655.516 126.211 m 633.516 126.211 l 633.516 137.211 l 655.516 137.211 l
 h
666.516 115.211 m 666.516 126.211 l 677.516 126.211 l 677.516 148.211 l
 633.516 148.211 l 633.516 159.211 l 666.516 159.211 l 666.516 170.211 l
 622.516 170.211 l 622.516 159.211 l 611.516 159.211 l 611.516 126.211 l
 622.516 126.211 l 622.516 115.211 l h
666.516 115.211 m f
688.516 170.211 m 688.516 159.211 l 699.516 159.211 l 699.516 148.211 l
 710.516 148.211 l 710.516 137.211 l 721.516 137.211 l 721.516 126.211 l
 732.516 126.211 l 732.516 115.211 l 743.516 115.211 l 743.516 104.211 l
 765.516 104.211 l 765.516 115.211 l 754.516 115.211 l 754.516 126.211 l
 743.516 126.211 l 743.516 137.211 l 732.516 137.211 l 732.516 148.211 l
 721.516 148.211 l 721.516 159.211 l 710.516 159.211 l 710.516 170.211 l
 h
688.516 170.211 m f
0 0 765.355 28.348 re f
Q Q
showpage
%%Trailer
end
%%EOF
